{
  "definitions": {},
  "$schema": "http://json-schema.org/draft-07/schema#",
  "type": "object",
  "title": "The Root Schema",
  "required": [
    "uuid",
    "felter",
    "indhold",
    "virkning",
    "menunummer",
    "objekttype",
    "relationer",
    "registrering",
    "hovedobjekttype",
    "brugervendtnoegle",
    "forretningsobjektnavn"
  ],
  "properties": {
    "uuid": {
      "$id": "#/properties/uuid",
      "type": "string",
      "title": "The Uuid Schema",
      "default": "",
      "examples": [
        "a94fce22-234f-4129-bcd2-27875737a988"
      ],
      "pattern": "^(.*)$"
    },
    "felter": {
      "$id": "#/properties/felter",
      "type": "object",
      "title": "The Felter Schema",
      "required": [
        "0c8ab909-ce10-4e63-afea-286b521444d3",
        "1eb336ae-1e69-45dd-9821-34df9de6dc27",
        "2297ffc6-70e1-4447-82ec-74586411a1cd",
        "43df61fa-e8a3-4de8-bb9f-5c310b4a378c",
        "4803c6c1-9b49-4023-9db0-7c3aaecdba71",
        "5ab5a131-8d90-4031-a8ce-8cf342f30378",
        "5f94cac7-19f6-4446-8db7-ae645929634d",
        "680f184d-5390-4b91-9f6c-5cd0a6bfab13",
        "7578f2ad-478a-4d2a-9be9-c7daafcfe81f",
        "7c6f7e2a-25be-4a20-baf9-5d25cc3ce96b",
        "7d4ef896-a6dd-40f1-bda8-0cb00fa5c3f3",
        "828c47a6-f383-4eb9-80a8-cad1ab7b7229",
        "8860aa7d-5bc4-4581-b8e8-16dc5eed2f63",
        "88f07e4f-42a0-45a9-bea7-a2528c277518",
        "8d87c71e-6415-4d4a-8bcf-7f499c5c9449",
        "8e4a78b4-0426-4a69-9e7f-bba97dc55ce9",
        "8efa487d-717f-43d6-b54a-a025ec227572",
        "8f1a58f5-2ae2-401a-90bb-b8f96d7fd8bc",
        "8f893630-9572-4868-b1db-0338d7a12d6f",
        "943840d6-9912-4a57-8215-92070853b245",
        "b39a8a01-558b-4f09-9f2c-d94f7ac1b587",
        "b964aef2-c86a-47f5-876e-7b2dcb636942",
        "b9e83b50-aea8-4c5c-8f1b-9827d52ad81d",
        "bf303cbb-a40c-4a79-bcc8-02ee3f35daaf",
        "c206f6de-b1be-4545-9b1c-1027f2b30214",
        "c6dc8bf9-3589-43a2-ab2a-76d67d03fef8",
        "ce992460-3d42-4223-9db9-e26e5e646c9f",
        "defcd7ff-75f1-43f7-97a1-a2bfc870b6a9",
        "e381ba71-6cc0-4711-a0ab-c6e683f253a5",
        "e5de4e14-effe-4a86-be04-a3c2a7071a23",
        "f861574d-b31d-4b92-b111-2c59c9433fc9"
      ],
      "properties": {
        "0c8ab909-ce10-4e63-afea-286b521444d3": {
          "$id": "#/properties/felter/properties/0c8ab909-ce10-4e63-afea-286b521444d3",
          "type": "object",
          "title": "The 0c8ab909-ce10-4e63-afea-286b521444d3 Schema",
          "required": [
            "uuid",
            "elementtype",
            "elementnummer",
            "feltegenskaber",
            "rel_objekttype",
            "brugervendtnoegle"
          ],
          "properties": {
            "uuid": {
              "$id": "#/properties/felter/properties/0c8ab909-ce10-4e63-afea-286b521444d3/properties/uuid",
              "type": "string",
              "title": "The Uuid Schema",
              "default": "",
              "examples": [
                "0c8ab909-ce10-4e63-afea-286b521444d3"
              ],
              "pattern": "^(.*)$"
            },
            "elementtype": {
              "$id": "#/properties/felter/properties/0c8ab909-ce10-4e63-afea-286b521444d3/properties/elementtype",
              "type": "string",
              "title": "The Elementtype Schema",
              "default": "",
              "examples": [
                "relation"
              ],
              "pattern": "^(.*)$"
            },
            "elementnummer": {
              "$id": "#/properties/felter/properties/0c8ab909-ce10-4e63-afea-286b521444d3/properties/elementnummer",
              "type": "string",
              "title": "The Elementnummer Schema",
              "default": "",
              "examples": [
                "9"
              ],
              "pattern": "^(.*)$"
            },
            "feltegenskaber": {
              "$id": "#/properties/felter/properties/0c8ab909-ce10-4e63-afea-286b521444d3/properties/feltegenskaber",
              "type": "string",
              "title": "The Feltegenskaber Schema",
              "default": "",
              "examples": [
                "uuid"
              ],
              "pattern": "^(.*)$"
            },
            "rel_objekttype": {
              "$id": "#/properties/felter/properties/0c8ab909-ce10-4e63-afea-286b521444d3/properties/rel_objekttype",
              "type": "string",
              "title": "The Rel_objekttype Schema",
              "default": "",
              "examples": [
                "klasse"
              ],
              "pattern": "^(.*)$"
            },
            "brugervendtnoegle": {
              "$id": "#/properties/felter/properties/0c8ab909-ce10-4e63-afea-286b521444d3/properties/brugervendtnoegle",
              "type": "string",
              "title": "The Brugervendtnoegle Schema",
              "default": "",
              "examples": [
                "virksomhedstype"
              ],
              "pattern": "^(.*)$"
            }
          }
        },
        "1eb336ae-1e69-45dd-9821-34df9de6dc27": {
          "$id": "#/properties/felter/properties/1eb336ae-1e69-45dd-9821-34df9de6dc27",
          "type": "object",
          "title": "The 1eb336ae-1e69-45dd-9821-34df9de6dc27 Schema",
          "required": [
            "uuid",
            "elementtype",
            "elementnummer",
            "feltegenskaber",
            "rel_objekttype",
            "brugervendtnoegle"
          ],
          "properties": {
            "uuid": {
              "$id": "#/properties/felter/properties/1eb336ae-1e69-45dd-9821-34df9de6dc27/properties/uuid",
              "type": "string",
              "title": "The Uuid Schema",
              "default": "",
              "examples": [
                "1eb336ae-1e69-45dd-9821-34df9de6dc27"
              ],
              "pattern": "^(.*)$"
            },
            "elementtype": {
              "$id": "#/properties/felter/properties/1eb336ae-1e69-45dd-9821-34df9de6dc27/properties/elementtype",
              "type": "string",
              "title": "The Elementtype Schema",
              "default": "",
              "examples": [
                "relationer"
              ],
              "pattern": "^(.*)$"
            },
            "elementnummer": {
              "$id": "#/properties/felter/properties/1eb336ae-1e69-45dd-9821-34df9de6dc27/properties/elementnummer",
              "type": "string",
              "title": "The Elementnummer Schema",
              "default": "",
              "examples": [
                "28"
              ],
              "pattern": "^(.*)$"
            },
            "feltegenskaber": {
              "$id": "#/properties/felter/properties/1eb336ae-1e69-45dd-9821-34df9de6dc27/properties/feltegenskaber",
              "type": "string",
              "title": "The Feltegenskaber Schema",
              "default": "",
              "examples": [
                "uuid"
              ],
              "pattern": "^(.*)$"
            },
            "rel_objekttype": {
              "$id": "#/properties/felter/properties/1eb336ae-1e69-45dd-9821-34df9de6dc27/properties/rel_objekttype",
              "type": "string",
              "title": "The Rel_objekttype Schema",
              "default": "",
              "examples": [
                "person"
              ],
              "pattern": "^(.*)$"
            },
            "brugervendtnoegle": {
              "$id": "#/properties/felter/properties/1eb336ae-1e69-45dd-9821-34df9de6dc27/properties/brugervendtnoegle",
              "type": "string",
              "title": "The Brugervendtnoegle Schema",
              "default": "",
              "examples": [
                "tilknyttedepersoner"
              ],
              "pattern": "^(.*)$"
            }
          }
        },
        "2297ffc6-70e1-4447-82ec-74586411a1cd": {
          "$id": "#/properties/felter/properties/2297ffc6-70e1-4447-82ec-74586411a1cd",
          "type": "object",
          "title": "The 2297ffc6-70e1-4447-82ec-74586411a1cd Schema",
          "required": [
            "uuid",
            "elementtype",
            "elementnummer",
            "feltegenskaber",
            "rel_objekttype",
            "brugervendtnoegle"
          ],
          "properties": {
            "uuid": {
              "$id": "#/properties/felter/properties/2297ffc6-70e1-4447-82ec-74586411a1cd/properties/uuid",
              "type": "string",
              "title": "The Uuid Schema",
              "default": "",
              "examples": [
                "2297ffc6-70e1-4447-82ec-74586411a1cd"
              ],
              "pattern": "^(.*)$"
            },
            "elementtype": {
              "$id": "#/properties/felter/properties/2297ffc6-70e1-4447-82ec-74586411a1cd/properties/elementtype",
              "type": "string",
              "title": "The Elementtype Schema",
              "default": "",
              "examples": [
                "relation"
              ],
              "pattern": "^(.*)$"
            },
            "elementnummer": {
              "$id": "#/properties/felter/properties/2297ffc6-70e1-4447-82ec-74586411a1cd/properties/elementnummer",
              "type": "string",
              "title": "The Elementnummer Schema",
              "default": "",
              "examples": [
                "20"
              ],
              "pattern": "^(.*)$"
            },
            "feltegenskaber": {
              "$id": "#/properties/felter/properties/2297ffc6-70e1-4447-82ec-74586411a1cd/properties/feltegenskaber",
              "type": "string",
              "title": "The Feltegenskaber Schema",
              "default": "",
              "examples": [
                "uuid"
              ],
              "pattern": "^(.*)$"
            },
            "rel_objekttype": {
              "$id": "#/properties/felter/properties/2297ffc6-70e1-4447-82ec-74586411a1cd/properties/rel_objekttype",
              "type": "string",
              "title": "The Rel_objekttype Schema",
              "default": "",
              "examples": [
                "skatteenhed"
              ],
              "pattern": "^(.*)$"
            },
            "brugervendtnoegle": {
              "$id": "#/properties/felter/properties/2297ffc6-70e1-4447-82ec-74586411a1cd/properties/brugervendtnoegle",
              "type": "string",
              "title": "The Brugervendtnoegle Schema",
              "default": "",
              "examples": [
                "skatteenhed"
              ],
              "pattern": "^(.*)$"
            }
          }
        },
        "43df61fa-e8a3-4de8-bb9f-5c310b4a378c": {
          "$id": "#/properties/felter/properties/43df61fa-e8a3-4de8-bb9f-5c310b4a378c",
          "type": "object",
          "title": "The 43df61fa-e8a3-4de8-bb9f-5c310b4a378c Schema",
          "required": [
            "uuid",
            "elementtype",
            "elementnummer",
            "feltegenskaber",
            "rel_objekttype",
            "brugervendtnoegle"
          ],
          "properties": {
            "uuid": {
              "$id": "#/properties/felter/properties/43df61fa-e8a3-4de8-bb9f-5c310b4a378c/properties/uuid",
              "type": "string",
              "title": "The Uuid Schema",
              "default": "",
              "examples": [
                "43df61fa-e8a3-4de8-bb9f-5c310b4a378c"
              ],
              "pattern": "^(.*)$"
            },
            "elementtype": {
              "$id": "#/properties/felter/properties/43df61fa-e8a3-4de8-bb9f-5c310b4a378c/properties/elementtype",
              "type": "string",
              "title": "The Elementtype Schema",
              "default": "",
              "examples": [
                "relation"
              ],
              "pattern": "^(.*)$"
            },
            "elementnummer": {
              "$id": "#/properties/felter/properties/43df61fa-e8a3-4de8-bb9f-5c310b4a378c/properties/elementnummer",
              "type": "string",
              "title": "The Elementnummer Schema",
              "default": "",
              "examples": [
                "10"
              ],
              "pattern": "^(.*)$"
            },
            "feltegenskaber": {
              "$id": "#/properties/felter/properties/43df61fa-e8a3-4de8-bb9f-5c310b4a378c/properties/feltegenskaber",
              "type": "string",
              "title": "The Feltegenskaber Schema",
              "default": "",
              "examples": [
                "uuid"
              ],
              "pattern": "^(.*)$"
            },
            "rel_objekttype": {
              "$id": "#/properties/felter/properties/43df61fa-e8a3-4de8-bb9f-5c310b4a378c/properties/rel_objekttype",
              "type": "string",
              "title": "The Rel_objekttype Schema",
              "default": "",
              "examples": [
                "klasse"
              ],
              "pattern": "^(.*)$"
            },
            "brugervendtnoegle": {
              "$id": "#/properties/felter/properties/43df61fa-e8a3-4de8-bb9f-5c310b4a378c/properties/brugervendtnoegle",
              "type": "string",
              "title": "The Brugervendtnoegle Schema",
              "default": "",
              "examples": [
                "myndighedstype"
              ],
              "pattern": "^(.*)$"
            }
          }
        },
        "4803c6c1-9b49-4023-9db0-7c3aaecdba71": {
          "$id": "#/properties/felter/properties/4803c6c1-9b49-4023-9db0-7c3aaecdba71",
          "type": "object",
          "title": "The 4803c6c1-9b49-4023-9db0-7c3aaecdba71 Schema",
          "required": [
            "uuid",
            "elementtype",
            "elementnummer",
            "feltegenskaber",
            "rel_objekttype",
            "brugervendtnoegle"
          ],
          "properties": {
            "uuid": {
              "$id": "#/properties/felter/properties/4803c6c1-9b49-4023-9db0-7c3aaecdba71/properties/uuid",
              "type": "string",
              "title": "The Uuid Schema",
              "default": "",
              "examples": [
                "4803c6c1-9b49-4023-9db0-7c3aaecdba71"
              ],
              "pattern": "^(.*)$"
            },
            "elementtype": {
              "$id": "#/properties/felter/properties/4803c6c1-9b49-4023-9db0-7c3aaecdba71/properties/elementtype",
              "type": "string",
              "title": "The Elementtype Schema",
              "default": "",
              "examples": [
                "relationer"
              ],
              "pattern": "^(.*)$"
            },
            "elementnummer": {
              "$id": "#/properties/felter/properties/4803c6c1-9b49-4023-9db0-7c3aaecdba71/properties/elementnummer",
              "type": "string",
              "title": "The Elementnummer Schema",
              "default": "",
              "examples": [
                "25"
              ],
              "pattern": "^(.*)$"
            },
            "feltegenskaber": {
              "$id": "#/properties/felter/properties/4803c6c1-9b49-4023-9db0-7c3aaecdba71/properties/feltegenskaber",
              "type": "string",
              "title": "The Feltegenskaber Schema",
              "default": "",
              "examples": [
                "uuid"
              ],
              "pattern": "^(.*)$"
            },
            "rel_objekttype": {
              "$id": "#/properties/felter/properties/4803c6c1-9b49-4023-9db0-7c3aaecdba71/properties/rel_objekttype",
              "type": "string",
              "title": "The Rel_objekttype Schema",
              "default": "",
              "examples": [
                "bruger"
              ],
              "pattern": "^(.*)$"
            },
            "brugervendtnoegle": {
              "$id": "#/properties/felter/properties/4803c6c1-9b49-4023-9db0-7c3aaecdba71/properties/brugervendtnoegle",
              "type": "string",
              "title": "The Brugervendtnoegle Schema",
              "default": "",
              "examples": [
                "tilknyttedebrugere"
              ],
              "pattern": "^(.*)$"
            }
          }
        },
        "5ab5a131-8d90-4031-a8ce-8cf342f30378": {
          "$id": "#/properties/felter/properties/5ab5a131-8d90-4031-a8ce-8cf342f30378",
          "type": "object",
          "title": "The 5ab5a131-8d90-4031-a8ce-8cf342f30378 Schema",
          "required": [
            "uuid",
            "elementtype",
            "elementnummer",
            "feltegenskaber",
            "rel_objekttype",
            "brugervendtnoegle"
          ],
          "properties": {
            "uuid": {
              "$id": "#/properties/felter/properties/5ab5a131-8d90-4031-a8ce-8cf342f30378/properties/uuid",
              "type": "string",
              "title": "The Uuid Schema",
              "default": "",
              "examples": [
                "5ab5a131-8d90-4031-a8ce-8cf342f30378"
              ],
              "pattern": "^(.*)$"
            },
            "elementtype": {
              "$id": "#/properties/felter/properties/5ab5a131-8d90-4031-a8ce-8cf342f30378/properties/elementtype",
              "type": "string",
              "title": "The Elementtype Schema",
              "default": "",
              "examples": [
                "relationer"
              ],
              "pattern": "^(.*)$"
            },
            "elementnummer": {
              "$id": "#/properties/felter/properties/5ab5a131-8d90-4031-a8ce-8cf342f30378/properties/elementnummer",
              "type": "string",
              "title": "The Elementnummer Schema",
              "default": "",
              "examples": [
                "14"
              ],
              "pattern": "^(.*)$"
            },
            "feltegenskaber": {
              "$id": "#/properties/felter/properties/5ab5a131-8d90-4031-a8ce-8cf342f30378/properties/feltegenskaber",
              "type": "string",
              "title": "The Feltegenskaber Schema",
              "default": "",
              "examples": [
                "uuid"
              ],
              "pattern": "^(.*)$"
            },
            "rel_objekttype": {
              "$id": "#/properties/felter/properties/5ab5a131-8d90-4031-a8ce-8cf342f30378/properties/rel_objekttype",
              "type": "string",
              "title": "The Rel_objekttype Schema",
              "default": "",
              "examples": [
                "klasse"
              ],
              "pattern": "^(.*)$"
            },
            "brugervendtnoegle": {
              "$id": "#/properties/felter/properties/5ab5a131-8d90-4031-a8ce-8cf342f30378/properties/brugervendtnoegle",
              "type": "string",
              "title": "The Brugervendtnoegle Schema",
              "default": "",
              "examples": [
                "branche"
              ],
              "pattern": "^(.*)$"
            }
          }
        },
        "5f94cac7-19f6-4446-8db7-ae645929634d": {
          "$id": "#/properties/felter/properties/5f94cac7-19f6-4446-8db7-ae645929634d",
          "type": "object",
          "title": "The 5f94cac7-19f6-4446-8db7-ae645929634d Schema",
          "required": [
            "uuid",
            "elementtype",
            "elementnummer",
            "feltegenskaber",
            "rel_objekttype",
            "brugervendtnoegle"
          ],
          "properties": {
            "uuid": {
              "$id": "#/properties/felter/properties/5f94cac7-19f6-4446-8db7-ae645929634d/properties/uuid",
              "type": "string",
              "title": "The Uuid Schema",
              "default": "",
              "examples": [
                "5f94cac7-19f6-4446-8db7-ae645929634d"
              ],
              "pattern": "^(.*)$"
            },
            "elementtype": {
              "$id": "#/properties/felter/properties/5f94cac7-19f6-4446-8db7-ae645929634d/properties/elementtype",
              "type": "string",
              "title": "The Elementtype Schema",
              "default": "",
              "examples": [
                "relationer"
              ],
              "pattern": "^(.*)$"
            },
            "elementnummer": {
              "$id": "#/properties/felter/properties/5f94cac7-19f6-4446-8db7-ae645929634d/properties/elementnummer",
              "type": "string",
              "title": "The Elementnummer Schema",
              "default": "",
              "examples": [
                "23"
              ],
              "pattern": "^(.*)$"
            },
            "feltegenskaber": {
              "$id": "#/properties/felter/properties/5f94cac7-19f6-4446-8db7-ae645929634d/properties/feltegenskaber",
              "type": "string",
              "title": "The Feltegenskaber Schema",
              "default": "",
              "examples": [
                "uuid"
              ],
              "pattern": "^(.*)$"
            },
            "rel_objekttype": {
              "$id": "#/properties/felter/properties/5f94cac7-19f6-4446-8db7-ae645929634d/properties/rel_objekttype",
              "type": "string",
              "title": "The Rel_objekttype Schema",
              "default": "",
              "examples": [
                "organisationenhed"
              ],
              "pattern": "^(.*)$"
            },
            "brugervendtnoegle": {
              "$id": "#/properties/felter/properties/5f94cac7-19f6-4446-8db7-ae645929634d/properties/brugervendtnoegle",
              "type": "string",
              "title": "The Brugervendtnoegle Schema",
              "default": "",
              "examples": [
                "tilknyttedeenheder"
              ],
              "pattern": "^(.*)$"
            }
          }
        },
        "680f184d-5390-4b91-9f6c-5cd0a6bfab13": {
          "$id": "#/properties/felter/properties/680f184d-5390-4b91-9f6c-5cd0a6bfab13",
          "type": "object",
          "title": "The 680f184d-5390-4b91-9f6c-5cd0a6bfab13 Schema",
          "required": [
            "uuid",
            "elementtype",
            "elementnummer",
            "feltegenskaber",
            "rel_objekttype",
            "brugervendtnoegle"
          ],
          "properties": {
            "uuid": {
              "$id": "#/properties/felter/properties/680f184d-5390-4b91-9f6c-5cd0a6bfab13/properties/uuid",
              "type": "string",
              "title": "The Uuid Schema",
              "default": "",
              "examples": [
                "680f184d-5390-4b91-9f6c-5cd0a6bfab13"
              ],
              "pattern": "^(.*)$"
            },
            "elementtype": {
              "$id": "#/properties/felter/properties/680f184d-5390-4b91-9f6c-5cd0a6bfab13/properties/elementtype",
              "type": "string",
              "title": "The Elementtype Schema",
              "default": "",
              "examples": [
                "relationer"
              ],
              "pattern": "^(.*)$"
            },
            "elementnummer": {
              "$id": "#/properties/felter/properties/680f184d-5390-4b91-9f6c-5cd0a6bfab13/properties/elementnummer",
              "type": "string",
              "title": "The Elementnummer Schema",
              "default": "",
              "examples": [
                "15"
              ],
              "pattern": "^(.*)$"
            },
            "feltegenskaber": {
              "$id": "#/properties/felter/properties/680f184d-5390-4b91-9f6c-5cd0a6bfab13/properties/feltegenskaber",
              "type": "string",
              "title": "The Feltegenskaber Schema",
              "default": "",
              "examples": [
                "uuid"
              ],
              "pattern": "^(.*)$"
            },
            "rel_objekttype": {
              "$id": "#/properties/felter/properties/680f184d-5390-4b91-9f6c-5cd0a6bfab13/properties/rel_objekttype",
              "type": "string",
              "title": "The Rel_objekttype Schema",
              "default": "",
              "examples": [
                "email"
              ],
              "pattern": "^(.*)$"
            },
            "brugervendtnoegle": {
              "$id": "#/properties/felter/properties/680f184d-5390-4b91-9f6c-5cd0a6bfab13/properties/brugervendtnoegle",
              "type": "string",
              "title": "The Brugervendtnoegle Schema",
              "default": "",
              "examples": [
                "email"
              ],
              "pattern": "^(.*)$"
            }
          }
        },
        "7578f2ad-478a-4d2a-9be9-c7daafcfe81f": {
          "$id": "#/properties/felter/properties/7578f2ad-478a-4d2a-9be9-c7daafcfe81f",
          "type": "object",
          "title": "The 7578f2ad-478a-4d2a-9be9-c7daafcfe81f Schema",
          "required": [
            "uuid",
            "kontekst",
            "elementtype",
            "elementnummer",
            "feltegenskaber",
            "brugervendtnoegle"
          ],
          "properties": {
            "uuid": {
              "$id": "#/properties/felter/properties/7578f2ad-478a-4d2a-9be9-c7daafcfe81f/properties/uuid",
              "type": "string",
              "title": "The Uuid Schema",
              "default": "",
              "examples": [
                "7578f2ad-478a-4d2a-9be9-c7daafcfe81f"
              ],
              "pattern": "^(.*)$"
            },
            "kontekst": {
              "$id": "#/properties/felter/properties/7578f2ad-478a-4d2a-9be9-c7daafcfe81f/properties/kontekst",
              "type": "array",
              "title": "The Kontekst Schema",
              "items": {
                "$id": "#/properties/felter/properties/7578f2ad-478a-4d2a-9be9-c7daafcfe81f/properties/kontekst/items",
                "type": "string",
                "title": "The Items Schema",
                "default": "",
                "examples": [
                  "943840d6-9912-4a57-8215-92070853b245"
                ],
                "pattern": "^(.*)$"
              }
            },
            "elementtype": {
              "$id": "#/properties/felter/properties/7578f2ad-478a-4d2a-9be9-c7daafcfe81f/properties/elementtype",
              "type": "string",
              "title": "The Elementtype Schema",
              "default": "",
              "examples": [
                "attributter"
              ],
              "pattern": "^(.*)$"
            },
            "elementnummer": {
              "$id": "#/properties/felter/properties/7578f2ad-478a-4d2a-9be9-c7daafcfe81f/properties/elementnummer",
              "type": "string",
              "title": "The Elementnummer Schema",
              "default": "",
              "examples": [
                "5"
              ],
              "pattern": "^(.*)$"
            },
            "feltegenskaber": {
              "$id": "#/properties/felter/properties/7578f2ad-478a-4d2a-9be9-c7daafcfe81f/properties/feltegenskaber",
              "type": "string",
              "title": "The Feltegenskaber Schema",
              "default": "",
              "examples": [
                "text"
              ],
              "pattern": "^(.*)$"
            },
            "brugervendtnoegle": {
              "$id": "#/properties/felter/properties/7578f2ad-478a-4d2a-9be9-c7daafcfe81f/properties/brugervendtnoegle",
              "type": "string",
              "title": "The Brugervendtnoegle Schema",
              "default": "",
              "examples": [
                "brugervendtnoegle"
              ],
              "pattern": "^(.*)$"
            }
          }
        },
        "7c6f7e2a-25be-4a20-baf9-5d25cc3ce96b": {
          "$id": "#/properties/felter/properties/7c6f7e2a-25be-4a20-baf9-5d25cc3ce96b",
          "type": "object",
          "title": "The 7c6f7e2a-25be-4a20-baf9-5d25cc3ce96b Schema",
          "required": [
            "uuid",
            "elementtype",
            "elementnummer",
            "feltegenskaber",
            "rel_objekttype",
            "brugervendtnoegle"
          ],
          "properties": {
            "uuid": {
              "$id": "#/properties/felter/properties/7c6f7e2a-25be-4a20-baf9-5d25cc3ce96b/properties/uuid",
              "type": "string",
              "title": "The Uuid Schema",
              "default": "",
              "examples": [
                "7c6f7e2a-25be-4a20-baf9-5d25cc3ce96b"
              ],
              "pattern": "^(.*)$"
            },
            "elementtype": {
              "$id": "#/properties/felter/properties/7c6f7e2a-25be-4a20-baf9-5d25cc3ce96b/properties/elementtype",
              "type": "string",
              "title": "The Elementtype Schema",
              "default": "",
              "examples": [
                "relationer"
              ],
              "pattern": "^(.*)$"
            },
            "elementnummer": {
              "$id": "#/properties/felter/properties/7c6f7e2a-25be-4a20-baf9-5d25cc3ce96b/properties/elementnummer",
              "type": "string",
              "title": "The Elementnummer Schema",
              "default": "",
              "examples": [
                "17"
              ],
              "pattern": "^(.*)$"
            },
            "feltegenskaber": {
              "$id": "#/properties/felter/properties/7c6f7e2a-25be-4a20-baf9-5d25cc3ce96b/properties/feltegenskaber",
              "type": "string",
              "title": "The Feltegenskaber Schema",
              "default": "",
              "examples": [
                "uuid"
              ],
              "pattern": "^(.*)$"
            },
            "rel_objekttype": {
              "$id": "#/properties/felter/properties/7c6f7e2a-25be-4a20-baf9-5d25cc3ce96b/properties/rel_objekttype",
              "type": "string",
              "title": "The Rel_objekttype Schema",
              "default": "",
              "examples": [
                "adresse"
              ],
              "pattern": "^(.*)$"
            },
            "brugervendtnoegle": {
              "$id": "#/properties/felter/properties/7c6f7e2a-25be-4a20-baf9-5d25cc3ce96b/properties/brugervendtnoegle",
              "type": "string",
              "title": "The Brugervendtnoegle Schema",
              "default": "",
              "examples": [
                "adresser"
              ],
              "pattern": "^(.*)$"
            }
          }
        },
        "7d4ef896-a6dd-40f1-bda8-0cb00fa5c3f3": {
          "$id": "#/properties/felter/properties/7d4ef896-a6dd-40f1-bda8-0cb00fa5c3f3",
          "type": "object",
          "title": "The 7d4ef896-a6dd-40f1-bda8-0cb00fa5c3f3 Schema",
          "required": [
            "uuid",
            "elementtype",
            "elementnummer",
            "feltegenskaber",
            "brugervendtnoegle"
          ],
          "properties": {
            "uuid": {
              "$id": "#/properties/felter/properties/7d4ef896-a6dd-40f1-bda8-0cb00fa5c3f3/properties/uuid",
              "type": "string",
              "title": "The Uuid Schema",
              "default": "",
              "examples": [
                "7d4ef896-a6dd-40f1-bda8-0cb00fa5c3f3"
              ],
              "pattern": "^(.*)$"
            },
            "elementtype": {
              "$id": "#/properties/felter/properties/7d4ef896-a6dd-40f1-bda8-0cb00fa5c3f3/properties/elementtype",
              "type": "string",
              "title": "The Elementtype Schema",
              "default": "",
              "examples": [
                "virkning"
              ],
              "pattern": "^(.*)$"
            },
            "elementnummer": {
              "$id": "#/properties/felter/properties/7d4ef896-a6dd-40f1-bda8-0cb00fa5c3f3/properties/elementnummer",
              "type": "string",
              "title": "The Elementnummer Schema",
              "default": "",
              "examples": [
                "3"
              ],
              "pattern": "^(.*)$"
            },
            "feltegenskaber": {
              "$id": "#/properties/felter/properties/7d4ef896-a6dd-40f1-bda8-0cb00fa5c3f3/properties/feltegenskaber",
              "type": "string",
              "title": "The Feltegenskaber Schema",
              "default": "",
              "examples": [
                "date"
              ],
              "pattern": "^(.*)$"
            },
            "brugervendtnoegle": {
              "$id": "#/properties/felter/properties/7d4ef896-a6dd-40f1-bda8-0cb00fa5c3f3/properties/brugervendtnoegle",
              "type": "string",
              "title": "The Brugervendtnoegle Schema",
              "default": "",
              "examples": [
                "til"
              ],
              "pattern": "^(.*)$"
            }
          }
        },
        "828c47a6-f383-4eb9-80a8-cad1ab7b7229": {
          "$id": "#/properties/felter/properties/828c47a6-f383-4eb9-80a8-cad1ab7b7229",
          "type": "object",
          "title": "The 828c47a6-f383-4eb9-80a8-cad1ab7b7229 Schema",
          "required": [
            "uuid",
            "elementtype",
            "elementnummer",
            "feltegenskaber",
            "brugervendtnoegle"
          ],
          "properties": {
            "uuid": {
              "$id": "#/properties/felter/properties/828c47a6-f383-4eb9-80a8-cad1ab7b7229/properties/uuid",
              "type": "string",
              "title": "The Uuid Schema",
              "default": "",
              "examples": [
                "828c47a6-f383-4eb9-80a8-cad1ab7b7229"
              ],
              "pattern": "^(.*)$"
            },
            "elementtype": {
              "$id": "#/properties/felter/properties/828c47a6-f383-4eb9-80a8-cad1ab7b7229/properties/elementtype",
              "type": "string",
              "title": "The Elementtype Schema",
              "default": "",
              "examples": [
                "virkning"
              ],
              "pattern": "^(.*)$"
            },
            "elementnummer": {
              "$id": "#/properties/felter/properties/828c47a6-f383-4eb9-80a8-cad1ab7b7229/properties/elementnummer",
              "type": "string",
              "title": "The Elementnummer Schema",
              "default": "",
              "examples": [
                "2"
              ],
              "pattern": "^(.*)$"
            },
            "feltegenskaber": {
              "$id": "#/properties/felter/properties/828c47a6-f383-4eb9-80a8-cad1ab7b7229/properties/feltegenskaber",
              "type": "string",
              "title": "The Feltegenskaber Schema",
              "default": "",
              "examples": [
                "date"
              ],
              "pattern": "^(.*)$"
            },
            "brugervendtnoegle": {
              "$id": "#/properties/felter/properties/828c47a6-f383-4eb9-80a8-cad1ab7b7229/properties/brugervendtnoegle",
              "type": "string",
              "title": "The Brugervendtnoegle Schema",
              "default": "",
              "examples": [
                "fra"
              ],
              "pattern": "^(.*)$"
            }
          }
        },
        "8860aa7d-5bc4-4581-b8e8-16dc5eed2f63": {
          "$id": "#/properties/felter/properties/8860aa7d-5bc4-4581-b8e8-16dc5eed2f63",
          "type": "object",
          "title": "The 8860aa7d-5bc4-4581-b8e8-16dc5eed2f63 Schema",
          "required": [
            "uuid",
            "elementtype",
            "elementnummer",
            "feltegenskaber",
            "rel_objekttype",
            "brugervendtnoegle"
          ],
          "properties": {
            "uuid": {
              "$id": "#/properties/felter/properties/8860aa7d-5bc4-4581-b8e8-16dc5eed2f63/properties/uuid",
              "type": "string",
              "title": "The Uuid Schema",
              "default": "",
              "examples": [
                "8860aa7d-5bc4-4581-b8e8-16dc5eed2f63"
              ],
              "pattern": "^(.*)$"
            },
            "elementtype": {
              "$id": "#/properties/felter/properties/8860aa7d-5bc4-4581-b8e8-16dc5eed2f63/properties/elementtype",
              "type": "string",
              "title": "The Elementtype Schema",
              "default": "",
              "examples": [
                "relation"
              ],
              "pattern": "^(.*)$"
            },
            "elementnummer": {
              "$id": "#/properties/felter/properties/8860aa7d-5bc4-4581-b8e8-16dc5eed2f63/properties/elementnummer",
              "type": "string",
              "title": "The Elementnummer Schema",
              "default": "",
              "examples": [
                "19"
              ],
              "pattern": "^(.*)$"
            },
            "feltegenskaber": {
              "$id": "#/properties/felter/properties/8860aa7d-5bc4-4581-b8e8-16dc5eed2f63/properties/feltegenskaber",
              "type": "string",
              "title": "The Feltegenskaber Schema",
              "default": "",
              "examples": [
                "uuid"
              ],
              "pattern": "^(.*)$"
            },
            "rel_objekttype": {
              "$id": "#/properties/felter/properties/8860aa7d-5bc4-4581-b8e8-16dc5eed2f63/properties/rel_objekttype",
              "type": "string",
              "title": "The Rel_objekttype Schema",
              "default": "",
              "examples": [
                "produktionsenhed"
              ],
              "pattern": "^(.*)$"
            },
            "brugervendtnoegle": {
              "$id": "#/properties/felter/properties/8860aa7d-5bc4-4581-b8e8-16dc5eed2f63/properties/brugervendtnoegle",
              "type": "string",
              "title": "The Brugervendtnoegle Schema",
              "default": "",
              "examples": [
                "produktionsenhed"
              ],
              "pattern": "^(.*)$"
            }
          }
        },
        "88f07e4f-42a0-45a9-bea7-a2528c277518": {
          "$id": "#/properties/felter/properties/88f07e4f-42a0-45a9-bea7-a2528c277518",
          "type": "object",
          "title": "The 88f07e4f-42a0-45a9-bea7-a2528c277518 Schema",
          "required": [
            "uuid",
            "elementnummer",
            "feltegenskaber",
            "rel_objekttype",
            "brugervendtnoegle"
          ],
          "properties": {
            "uuid": {
              "$id": "#/properties/felter/properties/88f07e4f-42a0-45a9-bea7-a2528c277518/properties/uuid",
              "type": "string",
              "title": "The Uuid Schema",
              "default": "",
              "examples": [
                "88f07e4f-42a0-45a9-bea7-a2528c277518"
              ],
              "pattern": "^(.*)$"
            },
            "elementnummer": {
              "$id": "#/properties/felter/properties/88f07e4f-42a0-45a9-bea7-a2528c277518/properties/elementnummer",
              "type": "string",
              "title": "The Elementnummer Schema",
              "default": "",
              "examples": [
                "24"
              ],
              "pattern": "^(.*)$"
            },
            "feltegenskaber": {
              "$id": "#/properties/felter/properties/88f07e4f-42a0-45a9-bea7-a2528c277518/properties/feltegenskaber",
              "type": "string",
              "title": "The Feltegenskaber Schema",
              "default": "",
              "examples": [
                "uuid"
              ],
              "pattern": "^(.*)$"
            },
            "rel_objekttype": {
              "$id": "#/properties/felter/properties/88f07e4f-42a0-45a9-bea7-a2528c277518/properties/rel_objekttype",
              "type": "string",
              "title": "The Rel_objekttype Schema",
              "default": "",
              "examples": [
                "funktion"
              ],
              "pattern": "^(.*)$"
            },
            "brugervendtnoegle": {
              "$id": "#/properties/felter/properties/88f07e4f-42a0-45a9-bea7-a2528c277518/properties/brugervendtnoegle",
              "type": "string",
              "title": "The Brugervendtnoegle Schema",
              "default": "",
              "examples": [
                "tilknyttedefunktioner"
              ],
              "pattern": "^(.*)$"
            }
          }
        },
        "8d87c71e-6415-4d4a-8bcf-7f499c5c9449": {
          "$id": "#/properties/felter/properties/8d87c71e-6415-4d4a-8bcf-7f499c5c9449",
          "type": "object",
          "title": "The 8d87c71e-6415-4d4a-8bcf-7f499c5c9449 Schema",
          "required": [
            "uuid",
            "elementtype",
            "elementnummer",
            "feltegenskaber",
            "rel_objekttype",
            "brugervendtnoegle"
          ],
          "properties": {
            "uuid": {
              "$id": "#/properties/felter/properties/8d87c71e-6415-4d4a-8bcf-7f499c5c9449/properties/uuid",
              "type": "string",
              "title": "The Uuid Schema",
              "default": "",
              "examples": [
                "8d87c71e-6415-4d4a-8bcf-7f499c5c9449"
              ],
              "pattern": "^(.*)$"
            },
            "elementtype": {
              "$id": "#/properties/felter/properties/8d87c71e-6415-4d4a-8bcf-7f499c5c9449/properties/elementtype",
              "type": "string",
              "title": "The Elementtype Schema",
              "default": "",
              "examples": [
                "relationer"
              ],
              "pattern": "^(.*)$"
            },
            "elementnummer": {
              "$id": "#/properties/felter/properties/8d87c71e-6415-4d4a-8bcf-7f499c5c9449/properties/elementnummer",
              "type": "string",
              "title": "The Elementnummer Schema",
              "default": "",
              "examples": [
                "19"
              ],
              "pattern": "^(.*)$"
            },
            "feltegenskaber": {
              "$id": "#/properties/felter/properties/8d87c71e-6415-4d4a-8bcf-7f499c5c9449/properties/feltegenskaber",
              "type": "string",
              "title": "The Feltegenskaber Schema",
              "default": "",
              "examples": [
                "uuid"
              ],
              "pattern": "^(.*)$"
            },
            "rel_objekttype": {
              "$id": "#/properties/felter/properties/8d87c71e-6415-4d4a-8bcf-7f499c5c9449/properties/rel_objekttype",
              "type": "string",
              "title": "The Rel_objekttype Schema",
              "default": "",
              "examples": [
                "adresse"
              ],
              "pattern": "^(.*)$"
            },
            "brugervendtnoegle": {
              "$id": "#/properties/felter/properties/8d87c71e-6415-4d4a-8bcf-7f499c5c9449/properties/brugervendtnoegle",
              "type": "string",
              "title": "The Brugervendtnoegle Schema",
              "default": "",
              "examples": [
                "postdistrikt"
              ],
              "pattern": "^(.*)$"
            }
          }
        },
        "8e4a78b4-0426-4a69-9e7f-bba97dc55ce9": {
          "$id": "#/properties/felter/properties/8e4a78b4-0426-4a69-9e7f-bba97dc55ce9",
          "type": "object",
          "title": "The 8e4a78b4-0426-4a69-9e7f-bba97dc55ce9 Schema",
          "required": [
            "uuid",
            "elementtype",
            "elementnummer",
            "feltegenskaber",
            "rel_objekttype",
            "brugervendtnoegle"
          ],
          "properties": {
            "uuid": {
              "$id": "#/properties/felter/properties/8e4a78b4-0426-4a69-9e7f-bba97dc55ce9/properties/uuid",
              "type": "string",
              "title": "The Uuid Schema",
              "default": "",
              "examples": [
                "8e4a78b4-0426-4a69-9e7f-bba97dc55ce9"
              ],
              "pattern": "^(.*)$"
            },
            "elementtype": {
              "$id": "#/properties/felter/properties/8e4a78b4-0426-4a69-9e7f-bba97dc55ce9/properties/elementtype",
              "type": "string",
              "title": "The Elementtype Schema",
              "default": "",
              "examples": [
                "relationer"
              ],
              "pattern": "^(.*)$"
            },
            "elementnummer": {
              "$id": "#/properties/felter/properties/8e4a78b4-0426-4a69-9e7f-bba97dc55ce9/properties/elementnummer",
              "type": "string",
              "title": "The Elementnummer Schema",
              "default": "",
              "examples": [
                "18"
              ],
              "pattern": "^(.*)$"
            },
            "feltegenskaber": {
              "$id": "#/properties/felter/properties/8e4a78b4-0426-4a69-9e7f-bba97dc55ce9/properties/feltegenskaber",
              "type": "string",
              "title": "The Feltegenskaber Schema",
              "default": "",
              "examples": [
                "uuid"
              ],
              "pattern": "^(.*)$"
            },
            "rel_objekttype": {
              "$id": "#/properties/felter/properties/8e4a78b4-0426-4a69-9e7f-bba97dc55ce9/properties/rel_objekttype",
              "type": "string",
              "title": "The Rel_objekttype Schema",
              "default": "",
              "examples": [
                "adresse"
              ],
              "pattern": "^(.*)$"
            },
            "brugervendtnoegle": {
              "$id": "#/properties/felter/properties/8e4a78b4-0426-4a69-9e7f-bba97dc55ce9/properties/brugervendtnoegle",
              "type": "string",
              "title": "The Brugervendtnoegle Schema",
              "default": "",
              "examples": [
                "postnummer"
              ],
              "pattern": "^(.*)$"
            }
          }
        },
        "8efa487d-717f-43d6-b54a-a025ec227572": {
          "$id": "#/properties/felter/properties/8efa487d-717f-43d6-b54a-a025ec227572",
          "type": "object",
          "title": "The 8efa487d-717f-43d6-b54a-a025ec227572 Schema",
          "required": [
            "uuid",
            "elementtype",
            "elementnummer",
            "feltegenskaber",
            "rel_objekttype",
            "brugervendtnoegle"
          ],
          "properties": {
            "uuid": {
              "$id": "#/properties/felter/properties/8efa487d-717f-43d6-b54a-a025ec227572/properties/uuid",
              "type": "string",
              "title": "The Uuid Schema",
              "default": "",
              "examples": [
                "8efa487d-717f-43d6-b54a-a025ec227572"
              ],
              "pattern": "^(.*)$"
            },
            "elementtype": {
              "$id": "#/properties/felter/properties/8efa487d-717f-43d6-b54a-a025ec227572/properties/elementtype",
              "type": "string",
              "title": "The Elementtype Schema",
              "default": "",
              "examples": [
                "relationer"
              ],
              "pattern": "^(.*)$"
            },
            "elementnummer": {
              "$id": "#/properties/felter/properties/8efa487d-717f-43d6-b54a-a025ec227572/properties/elementnummer",
              "type": "string",
              "title": "The Elementnummer Schema",
              "default": "",
              "examples": [
                "22"
              ],
              "pattern": "^(.*)$"
            },
            "feltegenskaber": {
              "$id": "#/properties/felter/properties/8efa487d-717f-43d6-b54a-a025ec227572/properties/feltegenskaber",
              "type": "string",
              "title": "The Feltegenskaber Schema",
              "default": "",
              "examples": [
                "uuid"
              ],
              "pattern": "^(.*)$"
            },
            "rel_objekttype": {
              "$id": "#/properties/felter/properties/8efa487d-717f-43d6-b54a-a025ec227572/properties/rel_objekttype",
              "type": "string",
              "title": "The Rel_objekttype Schema",
              "default": "",
              "examples": [
                "URI"
              ],
              "pattern": "^(.*)$"
            },
            "brugervendtnoegle": {
              "$id": "#/properties/felter/properties/8efa487d-717f-43d6-b54a-a025ec227572/properties/brugervendtnoegle",
              "type": "string",
              "title": "The Brugervendtnoegle Schema",
              "default": "",
              "examples": [
                "URI"
              ],
              "pattern": "^(.*)$"
            }
          }
        },
        "8f1a58f5-2ae2-401a-90bb-b8f96d7fd8bc": {
          "$id": "#/properties/felter/properties/8f1a58f5-2ae2-401a-90bb-b8f96d7fd8bc",
          "type": "object",
          "title": "The 8f1a58f5-2ae2-401a-90bb-b8f96d7fd8bc Schema",
          "required": [
            "uuid",
            "elementtype",
            "elementnummer",
            "feltegenskaber",
            "rel_objekttype",
            "brugervendtnoegle"
          ],
          "properties": {
            "uuid": {
              "$id": "#/properties/felter/properties/8f1a58f5-2ae2-401a-90bb-b8f96d7fd8bc/properties/uuid",
              "type": "string",
              "title": "The Uuid Schema",
              "default": "",
              "examples": [
                "8f1a58f5-2ae2-401a-90bb-b8f96d7fd8bc"
              ],
              "pattern": "^(.*)$"
            },
            "elementtype": {
              "$id": "#/properties/felter/properties/8f1a58f5-2ae2-401a-90bb-b8f96d7fd8bc/properties/elementtype",
              "type": "string",
              "title": "The Elementtype Schema",
              "default": "",
              "examples": [
                "relationer"
              ],
              "pattern": "^(.*)$"
            },
            "elementnummer": {
              "$id": "#/properties/felter/properties/8f1a58f5-2ae2-401a-90bb-b8f96d7fd8bc/properties/elementnummer",
              "type": "string",
              "title": "The Elementnummer Schema",
              "default": "",
              "examples": [
                "21"
              ],
              "pattern": "^(.*)$"
            },
            "feltegenskaber": {
              "$id": "#/properties/felter/properties/8f1a58f5-2ae2-401a-90bb-b8f96d7fd8bc/properties/feltegenskaber",
              "type": "string",
              "title": "The Feltegenskaber Schema",
              "default": "",
              "examples": [
                "uuid"
              ],
              "pattern": "^(.*)$"
            },
            "rel_objekttype": {
              "$id": "#/properties/felter/properties/8f1a58f5-2ae2-401a-90bb-b8f96d7fd8bc/properties/rel_objekttype",
              "type": "string",
              "title": "The Rel_objekttype Schema",
              "default": "",
              "examples": [
                "EAN"
              ],
              "pattern": "^(.*)$"
            },
            "brugervendtnoegle": {
              "$id": "#/properties/felter/properties/8f1a58f5-2ae2-401a-90bb-b8f96d7fd8bc/properties/brugervendtnoegle",
              "type": "string",
              "title": "The Brugervendtnoegle Schema",
              "default": "",
              "examples": [
                "EAN"
              ],
              "pattern": "^(.*)$"
            }
          }
        },
        "8f893630-9572-4868-b1db-0338d7a12d6f": {
          "$id": "#/properties/felter/properties/8f893630-9572-4868-b1db-0338d7a12d6f",
          "type": "object",
          "title": "The 8f893630-9572-4868-b1db-0338d7a12d6f Schema",
          "required": [
            "uuid",
            "elementtype",
            "elementnummer",
            "feltegenskaber",
            "rel_objekttype",
            "brugervendtnoegle"
          ],
          "properties": {
            "uuid": {
              "$id": "#/properties/felter/properties/8f893630-9572-4868-b1db-0338d7a12d6f/properties/uuid",
              "type": "string",
              "title": "The Uuid Schema",
              "default": "",
              "examples": [
                "8f893630-9572-4868-b1db-0338d7a12d6f"
              ],
              "pattern": "^(.*)$"
            },
            "elementtype": {
              "$id": "#/properties/felter/properties/8f893630-9572-4868-b1db-0338d7a12d6f/properties/elementtype",
              "type": "string",
              "title": "The Elementtype Schema",
              "default": "",
              "examples": [
                "relationer"
              ],
              "pattern": "^(.*)$"
            },
            "elementnummer": {
              "$id": "#/properties/felter/properties/8f893630-9572-4868-b1db-0338d7a12d6f/properties/elementnummer",
              "type": "string",
              "title": "The Elementnummer Schema",
              "default": "",
              "examples": [
                "16"
              ],
              "pattern": "^(.*)$"
            },
            "feltegenskaber": {
              "$id": "#/properties/felter/properties/8f893630-9572-4868-b1db-0338d7a12d6f/properties/feltegenskaber",
              "type": "string",
              "title": "The Feltegenskaber Schema",
              "default": "",
              "examples": [
                "uuid"
              ],
              "pattern": "^(.*)$"
            },
            "rel_objekttype": {
              "$id": "#/properties/felter/properties/8f893630-9572-4868-b1db-0338d7a12d6f/properties/rel_objekttype",
              "type": "string",
              "title": "The Rel_objekttype Schema",
              "default": "",
              "examples": [
                "telefon"
              ],
              "pattern": "^(.*)$"
            },
            "brugervendtnoegle": {
              "$id": "#/properties/felter/properties/8f893630-9572-4868-b1db-0338d7a12d6f/properties/brugervendtnoegle",
              "type": "string",
              "title": "The Brugervendtnoegle Schema",
              "default": "",
              "examples": [
                "telefon"
              ],
              "pattern": "^(.*)$"
            }
          }
        },
        "943840d6-9912-4a57-8215-92070853b245": {
          "$id": "#/properties/felter/properties/943840d6-9912-4a57-8215-92070853b245",
          "type": "object",
          "title": "The 943840d6-9912-4a57-8215-92070853b245 Schema",
          "required": [
            "uuid",
            "elementtype",
            "elementnummer",
            "feltegenskaber",
            "rel_objekttype",
            "brugervendtnoegle"
          ],
          "properties": {
            "uuid": {
              "$id": "#/properties/felter/properties/943840d6-9912-4a57-8215-92070853b245/properties/uuid",
              "type": "string",
              "title": "The Uuid Schema",
              "default": "",
              "examples": [
                "943840d6-9912-4a57-8215-92070853b245"
              ],
              "pattern": "^(.*)$"
            },
            "elementtype": {
              "$id": "#/properties/felter/properties/943840d6-9912-4a57-8215-92070853b245/properties/elementtype",
              "type": "string",
              "title": "The Elementtype Schema",
              "default": "",
              "examples": [
                "relation"
              ],
              "pattern": "^(.*)$"
            },
            "elementnummer": {
              "$id": "#/properties/felter/properties/943840d6-9912-4a57-8215-92070853b245/properties/elementnummer",
              "type": "string",
              "title": "The Elementnummer Schema",
              "default": "",
              "examples": [
                "8"
              ],
              "pattern": "^(.*)$"
            },
            "feltegenskaber": {
              "$id": "#/properties/felter/properties/943840d6-9912-4a57-8215-92070853b245/properties/feltegenskaber",
              "type": "string",
              "title": "The Feltegenskaber Schema",
              "default": "",
              "examples": [
                "uuid"
              ],
              "pattern": "^(.*)$"
            },
            "rel_objekttype": {
              "$id": "#/properties/felter/properties/943840d6-9912-4a57-8215-92070853b245/properties/rel_objekttype",
              "type": "string",
              "title": "The Rel_objekttype Schema",
              "default": "",
              "examples": [
                "itsystem"
              ],
              "pattern": "^(.*)$"
            },
            "brugervendtnoegle": {
              "$id": "#/properties/felter/properties/943840d6-9912-4a57-8215-92070853b245/properties/brugervendtnoegle",
              "type": "string",
              "title": "The Brugervendtnoegle Schema",
              "default": "",
              "examples": [
                "virksomhed"
              ],
              "pattern": "^(.*)$"
            }
          }
        },
        "b39a8a01-558b-4f09-9f2c-d94f7ac1b587": {
          "$id": "#/properties/felter/properties/b39a8a01-558b-4f09-9f2c-d94f7ac1b587",
          "type": "object",
          "title": "The B39a8a01-558b-4f09-9f2c-d94f7ac1b587 Schema",
          "required": [
            "uuid",
            "elementtype",
            "elementnummer",
            "feltegenskaber",
            "rel_objekttype",
            "brugervendtnoegle"
          ],
          "properties": {
            "uuid": {
              "$id": "#/properties/felter/properties/b39a8a01-558b-4f09-9f2c-d94f7ac1b587/properties/uuid",
              "type": "string",
              "title": "The Uuid Schema",
              "default": "",
              "examples": [
                "b39a8a01-558b-4f09-9f2c-d94f7ac1b587"
              ],
              "pattern": "^(.*)$"
            },
            "elementtype": {
              "$id": "#/properties/felter/properties/b39a8a01-558b-4f09-9f2c-d94f7ac1b587/properties/elementtype",
              "type": "string",
              "title": "The Elementtype Schema",
              "default": "",
              "examples": [
                "relationer"
              ],
              "pattern": "^(.*)$"
            },
            "elementnummer": {
              "$id": "#/properties/felter/properties/b39a8a01-558b-4f09-9f2c-d94f7ac1b587/properties/elementnummer",
              "type": "string",
              "title": "The Elementnummer Schema",
              "default": "",
              "examples": [
                "26"
              ],
              "pattern": "^(.*)$"
            },
            "feltegenskaber": {
              "$id": "#/properties/felter/properties/b39a8a01-558b-4f09-9f2c-d94f7ac1b587/properties/feltegenskaber",
              "type": "string",
              "title": "The Feltegenskaber Schema",
              "default": "",
              "examples": [
                "uuid"
              ],
              "pattern": "^(.*)$"
            },
            "rel_objekttype": {
              "$id": "#/properties/felter/properties/b39a8a01-558b-4f09-9f2c-d94f7ac1b587/properties/rel_objekttype",
              "type": "string",
              "title": "The Rel_objekttype Schema",
              "default": "",
              "examples": [
                "itsystem"
              ],
              "pattern": "^(.*)$"
            },
            "brugervendtnoegle": {
              "$id": "#/properties/felter/properties/b39a8a01-558b-4f09-9f2c-d94f7ac1b587/properties/brugervendtnoegle",
              "type": "string",
              "title": "The Brugervendtnoegle Schema",
              "default": "",
              "examples": [
                "tilknyttedeitsystemer"
              ],
              "pattern": "^(.*)$"
            }
          }
        },
        "b964aef2-c86a-47f5-876e-7b2dcb636942": {
          "$id": "#/properties/felter/properties/b964aef2-c86a-47f5-876e-7b2dcb636942",
          "type": "object",
          "title": "The B964aef2-c86a-47f5-876e-7b2dcb636942 Schema",
          "required": [
            "uuid",
            "elementtype",
            "elementnummer",
            "feltegenskaber",
            "brugervendtnoegle"
          ],
          "properties": {
            "uuid": {
              "$id": "#/properties/felter/properties/b964aef2-c86a-47f5-876e-7b2dcb636942/properties/uuid",
              "type": "string",
              "title": "The Uuid Schema",
              "default": "",
              "examples": [
                "b964aef2-c86a-47f5-876e-7b2dcb636942"
              ],
              "pattern": "^(.*)$"
            },
            "elementtype": {
              "$id": "#/properties/felter/properties/b964aef2-c86a-47f5-876e-7b2dcb636942/properties/elementtype",
              "type": "string",
              "title": "The Elementtype Schema",
              "default": "",
              "examples": [
                "virkning"
              ],
              "pattern": "^(.*)$"
            },
            "elementnummer": {
              "$id": "#/properties/felter/properties/b964aef2-c86a-47f5-876e-7b2dcb636942/properties/elementnummer",
              "type": "string",
              "title": "The Elementnummer Schema",
              "default": "",
              "examples": [
                "4"
              ],
              "pattern": "^(.*)$"
            },
            "feltegenskaber": {
              "$id": "#/properties/felter/properties/b964aef2-c86a-47f5-876e-7b2dcb636942/properties/feltegenskaber",
              "type": "string",
              "title": "The Feltegenskaber Schema",
              "default": "",
              "examples": [
                "text"
              ],
              "pattern": "^(.*)$"
            },
            "brugervendtnoegle": {
              "$id": "#/properties/felter/properties/b964aef2-c86a-47f5-876e-7b2dcb636942/properties/brugervendtnoegle",
              "type": "string",
              "title": "The Brugervendtnoegle Schema",
              "default": "",
              "examples": [
                "note"
              ],
              "pattern": "^(.*)$"
            }
          }
        },
        "b9e83b50-aea8-4c5c-8f1b-9827d52ad81d": {
          "$id": "#/properties/felter/properties/b9e83b50-aea8-4c5c-8f1b-9827d52ad81d",
          "type": "object",
          "title": "The B9e83b50-aea8-4c5c-8f1b-9827d52ad81d Schema",
          "required": [
            "uuid",
            "elementtype",
            "elementnummer",
            "feltegenskaber",
            "rel_objekttype",
            "brugervendtnoegle"
          ],
          "properties": {
            "uuid": {
              "$id": "#/properties/felter/properties/b9e83b50-aea8-4c5c-8f1b-9827d52ad81d/properties/uuid",
              "type": "string",
              "title": "The Uuid Schema",
              "default": "",
              "examples": [
                "b9e83b50-aea8-4c5c-8f1b-9827d52ad81d"
              ],
              "pattern": "^(.*)$"
            },
            "elementtype": {
              "$id": "#/properties/felter/properties/b9e83b50-aea8-4c5c-8f1b-9827d52ad81d/properties/elementtype",
              "type": "string",
              "title": "The Elementtype Schema",
              "default": "",
              "examples": [
                "relation"
              ],
              "pattern": "^(.*)$"
            },
            "elementnummer": {
              "$id": "#/properties/felter/properties/b9e83b50-aea8-4c5c-8f1b-9827d52ad81d/properties/elementnummer",
              "type": "string",
              "title": "The Elementnummer Schema",
              "default": "",
              "examples": [
                "12"
              ],
              "pattern": "^(.*)$"
            },
            "feltegenskaber": {
              "$id": "#/properties/felter/properties/b9e83b50-aea8-4c5c-8f1b-9827d52ad81d/properties/feltegenskaber",
              "type": "string",
              "title": "The Feltegenskaber Schema",
              "default": "",
              "examples": [
                "uuid"
              ],
              "pattern": "^(.*)$"
            },
            "rel_objekttype": {
              "$id": "#/properties/felter/properties/b9e83b50-aea8-4c5c-8f1b-9827d52ad81d/properties/rel_objekttype",
              "type": "string",
              "title": "The Rel_objekttype Schema",
              "default": "",
              "examples": [
                "organisation"
              ],
              "pattern": "^(.*)$"
            },
            "brugervendtnoegle": {
              "$id": "#/properties/felter/properties/b9e83b50-aea8-4c5c-8f1b-9827d52ad81d/properties/brugervendtnoegle",
              "type": "string",
              "title": "The Brugervendtnoegle Schema",
              "default": "",
              "examples": [
                "tilhoerer"
              ],
              "pattern": "^(.*)$"
            }
          }
        },
        "bf303cbb-a40c-4a79-bcc8-02ee3f35daaf": {
          "$id": "#/properties/felter/properties/bf303cbb-a40c-4a79-bcc8-02ee3f35daaf",
          "type": "object",
          "title": "The Bf303cbb-a40c-4a79-bcc8-02ee3f35daaf Schema",
          "required": [
            "uuid",
            "elementtype",
            "elementnummer",
            "feltegenskaber",
            "rel_objekttype",
            "brugervendtnoegle"
          ],
          "properties": {
            "uuid": {
              "$id": "#/properties/felter/properties/bf303cbb-a40c-4a79-bcc8-02ee3f35daaf/properties/uuid",
              "type": "string",
              "title": "The Uuid Schema",
              "default": "",
              "examples": [
                "bf303cbb-a40c-4a79-bcc8-02ee3f35daaf"
              ],
              "pattern": "^(.*)$"
            },
            "elementtype": {
              "$id": "#/properties/felter/properties/bf303cbb-a40c-4a79-bcc8-02ee3f35daaf/properties/elementtype",
              "type": "string",
              "title": "The Elementtype Schema",
              "default": "",
              "examples": [
                "relationer"
              ],
              "pattern": "^(.*)$"
            },
            "elementnummer": {
              "$id": "#/properties/felter/properties/bf303cbb-a40c-4a79-bcc8-02ee3f35daaf/properties/elementnummer",
              "type": "string",
              "title": "The Elementnummer Schema",
              "default": "",
              "examples": [
                "29"
              ],
              "pattern": "^(.*)$"
            },
            "feltegenskaber": {
              "$id": "#/properties/felter/properties/bf303cbb-a40c-4a79-bcc8-02ee3f35daaf/properties/feltegenskaber",
              "type": "string",
              "title": "The Feltegenskaber Schema",
              "default": "",
              "examples": [
                "uuid"
              ],
              "pattern": "^(.*)$"
            },
            "rel_objekttype": {
              "$id": "#/properties/felter/properties/bf303cbb-a40c-4a79-bcc8-02ee3f35daaf/properties/rel_objekttype",
              "type": "string",
              "title": "The Rel_objekttype Schema",
              "default": "",
              "examples": [
                "person"
              ],
              "pattern": "^(.*)$"
            },
            "brugervendtnoegle": {
              "$id": "#/properties/felter/properties/bf303cbb-a40c-4a79-bcc8-02ee3f35daaf/properties/brugervendtnoegle",
              "type": "string",
              "title": "The Brugervendtnoegle Schema",
              "default": "",
              "examples": [
                "ansatte"
              ],
              "pattern": "^(.*)$"
            }
          }
        },
        "c206f6de-b1be-4545-9b1c-1027f2b30214": {
          "$id": "#/properties/felter/properties/c206f6de-b1be-4545-9b1c-1027f2b30214",
          "type": "object",
          "title": "The C206f6de-b1be-4545-9b1c-1027f2b30214 Schema",
          "required": [
            "uuid",
            "elementtype",
            "elementnummer",
            "feltegenskaber",
            "rel_objekttype",
            "brugervendtnoegle"
          ],
          "properties": {
            "uuid": {
              "$id": "#/properties/felter/properties/c206f6de-b1be-4545-9b1c-1027f2b30214/properties/uuid",
              "type": "string",
              "title": "The Uuid Schema",
              "default": "",
              "examples": [
                "c206f6de-b1be-4545-9b1c-1027f2b30214"
              ],
              "pattern": "^(.*)$"
            },
            "elementtype": {
              "$id": "#/properties/felter/properties/c206f6de-b1be-4545-9b1c-1027f2b30214/properties/elementtype",
              "type": "string",
              "title": "The Elementtype Schema",
              "default": "",
              "examples": [
                "tilstande"
              ],
              "pattern": "^(.*)$"
            },
            "elementnummer": {
              "$id": "#/properties/felter/properties/c206f6de-b1be-4545-9b1c-1027f2b30214/properties/elementnummer",
              "type": "string",
              "title": "The Elementnummer Schema",
              "default": "",
              "examples": [
                "7"
              ],
              "pattern": "^(.*)$"
            },
            "feltegenskaber": {
              "$id": "#/properties/felter/properties/c206f6de-b1be-4545-9b1c-1027f2b30214/properties/feltegenskaber",
              "type": "string",
              "title": "The Feltegenskaber Schema",
              "default": "",
              "examples": [
                "uuid"
              ],
              "pattern": "^(.*)$"
            },
            "rel_objekttype": {
              "$id": "#/properties/felter/properties/c206f6de-b1be-4545-9b1c-1027f2b30214/properties/rel_objekttype",
              "type": "string",
              "title": "The Rel_objekttype Schema",
              "default": "",
              "examples": [
                "klasse"
              ],
              "pattern": "^(.*)$"
            },
            "brugervendtnoegle": {
              "$id": "#/properties/felter/properties/c206f6de-b1be-4545-9b1c-1027f2b30214/properties/brugervendtnoegle",
              "type": "string",
              "title": "The Brugervendtnoegle Schema",
              "default": "",
              "examples": [
                "gyldighed"
              ],
              "pattern": "^(.*)$"
            }
          }
        },
        "c6dc8bf9-3589-43a2-ab2a-76d67d03fef8": {
          "$id": "#/properties/felter/properties/c6dc8bf9-3589-43a2-ab2a-76d67d03fef8",
          "type": "object",
          "title": "The C6dc8bf9-3589-43a2-ab2a-76d67d03fef8 Schema",
          "required": [
            "uuid",
            "elementtype",
            "elementnummer",
            "feltegenskaber",
            "rel_objekttype",
            "brugervendtnoegle"
          ],
          "properties": {
            "uuid": {
              "$id": "#/properties/felter/properties/c6dc8bf9-3589-43a2-ab2a-76d67d03fef8/properties/uuid",
              "type": "string",
              "title": "The Uuid Schema",
              "default": "",
              "examples": [
                "c6dc8bf9-3589-43a2-ab2a-76d67d03fef8"
              ],
              "pattern": "^(.*)$"
            },
            "elementtype": {
              "$id": "#/properties/felter/properties/c6dc8bf9-3589-43a2-ab2a-76d67d03fef8/properties/elementtype",
              "type": "string",
              "title": "The Elementtype Schema",
              "default": "",
              "examples": [
                "relationer"
              ],
              "pattern": "^(.*)$"
            },
            "elementnummer": {
              "$id": "#/properties/felter/properties/c6dc8bf9-3589-43a2-ab2a-76d67d03fef8/properties/elementnummer",
              "type": "string",
              "title": "The Elementnummer Schema",
              "default": "",
              "examples": [
                "27"
              ],
              "pattern": "^(.*)$"
            },
            "feltegenskaber": {
              "$id": "#/properties/felter/properties/c6dc8bf9-3589-43a2-ab2a-76d67d03fef8/properties/feltegenskaber",
              "type": "string",
              "title": "The Feltegenskaber Schema",
              "default": "",
              "examples": [
                "uuid"
              ],
              "pattern": "^(.*)$"
            },
            "rel_objekttype": {
              "$id": "#/properties/felter/properties/c6dc8bf9-3589-43a2-ab2a-76d67d03fef8/properties/rel_objekttype",
              "type": "string",
              "title": "The Rel_objekttype Schema",
              "default": "",
              "examples": [
                "interessefaellesskab"
              ],
              "pattern": "^(.*)$"
            },
            "brugervendtnoegle": {
              "$id": "#/properties/felter/properties/c6dc8bf9-3589-43a2-ab2a-76d67d03fef8/properties/brugervendtnoegle",
              "type": "string",
              "title": "The Brugervendtnoegle Schema",
              "default": "",
              "examples": [
                "tilknyttedeinteressefaellesskaber"
              ],
              "pattern": "^(.*)$"
            }
          }
        },
        "ce992460-3d42-4223-9db9-e26e5e646c9f": {
          "$id": "#/properties/felter/properties/ce992460-3d42-4223-9db9-e26e5e646c9f",
          "type": "object",
          "title": "The Ce992460-3d42-4223-9db9-e26e5e646c9f Schema",
          "required": [
            "uuid",
            "elementtype",
            "elementnummer",
            "feltegenskaber",
            "brugervendtnoegle"
          ],
          "properties": {
            "uuid": {
              "$id": "#/properties/felter/properties/ce992460-3d42-4223-9db9-e26e5e646c9f/properties/uuid",
              "type": "string",
              "title": "The Uuid Schema",
              "default": "",
              "examples": [
                "ce992460-3d42-4223-9db9-e26e5e646c9f"
              ],
              "pattern": "^(.*)$"
            },
            "elementtype": {
              "$id": "#/properties/felter/properties/ce992460-3d42-4223-9db9-e26e5e646c9f/properties/elementtype",
              "type": "string",
              "title": "The Elementtype Schema",
              "default": "",
              "examples": [
                "identifikation"
              ],
              "pattern": "^(.*)$"
            },
            "elementnummer": {
              "$id": "#/properties/felter/properties/ce992460-3d42-4223-9db9-e26e5e646c9f/properties/elementnummer",
              "type": "string",
              "title": "The Elementnummer Schema",
              "default": "",
              "examples": [
                "1"
              ],
              "pattern": "^(.*)$"
            },
            "feltegenskaber": {
              "$id": "#/properties/felter/properties/ce992460-3d42-4223-9db9-e26e5e646c9f/properties/feltegenskaber",
              "type": "string",
              "title": "The Feltegenskaber Schema",
              "default": "",
              "examples": [
                "uuid"
              ],
              "pattern": "^(.*)$"
            },
            "brugervendtnoegle": {
              "$id": "#/properties/felter/properties/ce992460-3d42-4223-9db9-e26e5e646c9f/properties/brugervendtnoegle",
              "type": "string",
              "title": "The Brugervendtnoegle Schema",
              "default": "",
              "examples": [
                "uuid"
              ],
              "pattern": "^(.*)$"
            }
          }
        },
        "defcd7ff-75f1-43f7-97a1-a2bfc870b6a9": {
          "$id": "#/properties/felter/properties/defcd7ff-75f1-43f7-97a1-a2bfc870b6a9",
          "type": "object",
          "title": "The Defcd7ff-75f1-43f7-97a1-a2bfc870b6a9 Schema",
          "required": [
            "uuid",
            "elementtype",
            "elementnummer",
            "feltegenskaber",
            "rel_objekttype",
            "brugervendtnoegle"
          ],
          "properties": {
            "uuid": {
              "$id": "#/properties/felter/properties/defcd7ff-75f1-43f7-97a1-a2bfc870b6a9/properties/uuid",
              "type": "string",
              "title": "The Uuid Schema",
              "default": "",
              "examples": [
                "defcd7ff-75f1-43f7-97a1-a2bfc870b6a9"
              ],
              "pattern": "^(.*)$"
            },
            "elementtype": {
              "$id": "#/properties/felter/properties/defcd7ff-75f1-43f7-97a1-a2bfc870b6a9/properties/elementtype",
              "type": "string",
              "title": "The Elementtype Schema",
              "default": "",
              "examples": [
                "relation"
              ],
              "pattern": "^(.*)$"
            },
            "elementnummer": {
              "$id": "#/properties/felter/properties/defcd7ff-75f1-43f7-97a1-a2bfc870b6a9/properties/elementnummer",
              "type": "string",
              "title": "The Elementnummer Schema",
              "default": "",
              "examples": [
                "11"
              ],
              "pattern": "^(.*)$"
            },
            "feltegenskaber": {
              "$id": "#/properties/felter/properties/defcd7ff-75f1-43f7-97a1-a2bfc870b6a9/properties/feltegenskaber",
              "type": "string",
              "title": "The Feltegenskaber Schema",
              "default": "",
              "examples": [
                "uuid"
              ],
              "pattern": "^(.*)$"
            },
            "rel_objekttype": {
              "$id": "#/properties/felter/properties/defcd7ff-75f1-43f7-97a1-a2bfc870b6a9/properties/rel_objekttype",
              "type": "string",
              "title": "The Rel_objekttype Schema",
              "default": "",
              "examples": [
                "myndighedsnummer"
              ],
              "pattern": "^(.*)$"
            },
            "brugervendtnoegle": {
              "$id": "#/properties/felter/properties/defcd7ff-75f1-43f7-97a1-a2bfc870b6a9/properties/brugervendtnoegle",
              "type": "string",
              "title": "The Brugervendtnoegle Schema",
              "default": "",
              "examples": [
                "myndighed"
              ],
              "pattern": "^(.*)$"
            }
          }
        },
        "e381ba71-6cc0-4711-a0ab-c6e683f253a5": {
          "$id": "#/properties/felter/properties/e381ba71-6cc0-4711-a0ab-c6e683f253a5",
          "type": "object",
          "title": "The E381ba71-6cc0-4711-a0ab-c6e683f253a5 Schema",
          "required": [
            "uuid",
            "elementtype",
            "elementnummer",
            "feltegenskaber",
            "rel_objekttype",
            "brugervendtnoegle"
          ],
          "properties": {
            "uuid": {
              "$id": "#/properties/felter/properties/e381ba71-6cc0-4711-a0ab-c6e683f253a5/properties/uuid",
              "type": "string",
              "title": "The Uuid Schema",
              "default": "",
              "examples": [
                "e381ba71-6cc0-4711-a0ab-c6e683f253a5"
              ],
              "pattern": "^(.*)$"
            },
            "elementtype": {
              "$id": "#/properties/felter/properties/e381ba71-6cc0-4711-a0ab-c6e683f253a5/properties/elementtype",
              "type": "string",
              "title": "The Elementtype Schema",
              "default": "",
              "examples": [
                "relationer"
              ],
              "pattern": "^(.*)$"
            },
            "elementnummer": {
              "$id": "#/properties/felter/properties/e381ba71-6cc0-4711-a0ab-c6e683f253a5/properties/elementnummer",
              "type": "string",
              "title": "The Elementnummer Schema",
              "default": "",
              "examples": [
                "30"
              ],
              "pattern": "^(.*)$"
            },
            "feltegenskaber": {
              "$id": "#/properties/felter/properties/e381ba71-6cc0-4711-a0ab-c6e683f253a5/properties/feltegenskaber",
              "type": "string",
              "title": "The Feltegenskaber Schema",
              "default": "",
              "examples": [
                "uuid"
              ],
              "pattern": "^(.*)$"
            },
            "rel_objekttype": {
              "$id": "#/properties/felter/properties/e381ba71-6cc0-4711-a0ab-c6e683f253a5/properties/rel_objekttype",
              "type": "string",
              "title": "The Rel_objekttype Schema",
              "default": "",
              "examples": [
                "organisation"
              ],
              "pattern": "^(.*)$"
            },
            "brugervendtnoegle": {
              "$id": "#/properties/felter/properties/e381ba71-6cc0-4711-a0ab-c6e683f253a5/properties/brugervendtnoegle",
              "type": "string",
              "title": "The Brugervendtnoegle Schema",
              "default": "",
              "examples": [
                "tilknyttedeorganisationer"
              ],
              "pattern": "^(.*)$"
            }
          }
        },
        "e5de4e14-effe-4a86-be04-a3c2a7071a23": {
          "$id": "#/properties/felter/properties/e5de4e14-effe-4a86-be04-a3c2a7071a23",
          "type": "object",
          "title": "The E5de4e14-effe-4a86-be04-a3c2a7071a23 Schema",
          "required": [
            "uuid",
            "elementtype",
            "elementnummer",
            "feltegenskaber",
            "brugervendtnoegle"
          ],
          "properties": {
            "uuid": {
              "$id": "#/properties/felter/properties/e5de4e14-effe-4a86-be04-a3c2a7071a23/properties/uuid",
              "type": "string",
              "title": "The Uuid Schema",
              "default": "",
              "examples": [
                "e5de4e14-effe-4a86-be04-a3c2a7071a23"
              ],
              "pattern": "^(.*)$"
            },
            "elementtype": {
              "$id": "#/properties/felter/properties/e5de4e14-effe-4a86-be04-a3c2a7071a23/properties/elementtype",
              "type": "string",
              "title": "The Elementtype Schema",
              "default": "",
              "examples": [
                "attributter"
              ],
              "pattern": "^(.*)$"
            },
            "elementnummer": {
              "$id": "#/properties/felter/properties/e5de4e14-effe-4a86-be04-a3c2a7071a23/properties/elementnummer",
              "type": "string",
              "title": "The Elementnummer Schema",
              "default": "",
              "examples": [
                "6"
              ],
              "pattern": "^(.*)$"
            },
            "feltegenskaber": {
              "$id": "#/properties/felter/properties/e5de4e14-effe-4a86-be04-a3c2a7071a23/properties/feltegenskaber",
              "type": "string",
              "title": "The Feltegenskaber Schema",
              "default": "",
              "examples": [
                "text"
              ],
              "pattern": "^(.*)$"
            },
            "brugervendtnoegle": {
              "$id": "#/properties/felter/properties/e5de4e14-effe-4a86-be04-a3c2a7071a23/properties/brugervendtnoegle",
              "type": "string",
              "title": "The Brugervendtnoegle Schema",
              "default": "",
              "examples": [
                "organisationnavn"
              ],
              "pattern": "^(.*)$"
            }
          }
        },
        "f861574d-b31d-4b92-b111-2c59c9433fc9": {
          "$id": "#/properties/felter/properties/f861574d-b31d-4b92-b111-2c59c9433fc9",
          "type": "object",
          "title": "The F861574d-b31d-4b92-b111-2c59c9433fc9 Schema",
          "required": [
            "uuid",
            "elementtype",
            "elementnummer",
            "feltegenskaber",
            "rel_objekttype",
            "brugervendtnoegle"
          ],
          "properties": {
            "uuid": {
              "$id": "#/properties/felter/properties/f861574d-b31d-4b92-b111-2c59c9433fc9/properties/uuid",
              "type": "string",
              "title": "The Uuid Schema",
              "default": "",
              "examples": [
                "f861574d-b31d-4b92-b111-2c59c9433fc9"
              ],
              "pattern": "^(.*)$"
            },
            "elementtype": {
              "$id": "#/properties/felter/properties/f861574d-b31d-4b92-b111-2c59c9433fc9/properties/elementtype",
              "type": "string",
              "title": "The Elementtype Schema",
              "default": "",
              "examples": [
                "relationer"
              ],
              "pattern": "^(.*)$"
            },
            "elementnummer": {
              "$id": "#/properties/felter/properties/f861574d-b31d-4b92-b111-2c59c9433fc9/properties/elementnummer",
              "type": "string",
              "title": "The Elementnummer Schema",
              "default": "",
              "examples": [
                "31"
              ],
              "pattern": "^(.*)$"
            },
            "feltegenskaber": {
              "$id": "#/properties/felter/properties/f861574d-b31d-4b92-b111-2c59c9433fc9/properties/feltegenskaber",
              "type": "string",
              "title": "The Feltegenskaber Schema",
              "default": "",
              "examples": [
                "uuid"
              ],
              "pattern": "^(.*)$"
            },
            "rel_objekttype": {
              "$id": "#/properties/felter/properties/f861574d-b31d-4b92-b111-2c59c9433fc9/properties/rel_objekttype",
              "type": "string",
              "title": "The Rel_objekttype Schema",
              "default": "",
              "examples": [
                "klasse"
              ],
              "pattern": "^(.*)$"
            },
            "brugervendtnoegle": {
              "$id": "#/properties/felter/properties/f861574d-b31d-4b92-b111-2c59c9433fc9/properties/brugervendtnoegle",
              "type": "string",
              "title": "The Brugervendtnoegle Schema",
              "default": "",
              "examples": [
                "opgaver"
              ],
              "pattern": "^(.*)$"
            }
          }
        }
      }
    },
    "indhold": {
      "$id": "#/properties/indhold",
      "type": "string",
      "title": "The Indhold Schema",
      "default": "",
      "examples": [
        "objektdefinition"
      ],
      "pattern": "^(.*)$"
    },
    "virkning": {
      "$id": "#/properties/virkning",
      "type": "object",
      "title": "The Virkning Schema",
      "required": [
        "fra",
        "til",
        "note"
      ],
      "properties": {
        "fra": {
          "$id": "#/properties/virkning/properties/fra",
          "type": "string",
          "title": "The Fra Schema",
          "default": "",
          "examples": [
            "2018-10-01 16:00:00"
          ],
          "pattern": "^(.*)$"
        },
        "til": {
          "$id": "#/properties/virkning/properties/til",
          "type": "null",
          "title": "The Til Schema",
          "default": null,
          "examples": [
            null
          ]
        },
        "note": {
          "$id": "#/properties/virkning/properties/note",
          "type": "null",
          "title": "The Note Schema",
          "default": null,
          "examples": [
            null
          ]
        }
      }
    },
    "menunummer": {
      "$id": "#/properties/menunummer",
      "type": "string",
      "title": "The Menunummer Schema",
      "default": "",
      "examples": [
        "1"
      ],
      "pattern": "^(.*)$"
    },
    "objekttype": {
      "$id": "#/properties/objekttype",
      "type": "string",
      "title": "The Objekttype Schema",
      "default": "",
      "examples": [
        "skema"
      ],
      "pattern": "^(.*)$"
    },
    "relationer": {
      "$id": "#/properties/relationer",
      "type": "object",
      "title": "The Relationer Schema",
      "required": [
        "ejer",
        "ansvarlig",
        "tilhoerer",
        "redaktoerer"
      ],
      "properties": {
        "ejer": {
          "$id": "#/properties/relationer/properties/ejer",
          "type": "array",
          "title": "The Ejer Schema",
          "items": {
            "$id": "#/properties/relationer/properties/ejer/items",
            "type": "object",
            "title": "The Items Schema",
            "required": [
              "rel_uuid",
              "rel_objekttype"
            ],
            "properties": {
              "rel_uuid": {
                "$id": "#/properties/relationer/properties/ejer/items/properties/rel_uuid",
                "type": "string",
                "title": "The Rel_uuid Schema",
                "default": "",
                "examples": [
                  "132f4dc4-cecb-4b9e-a976-459e423ed01c"
                ],
                "pattern": "^(.*)$"
              },
              "rel_objekttype": {
                "$id": "#/properties/relationer/properties/ejer/items/properties/rel_objekttype",
                "type": "string",
                "title": "The Rel_objekttype Schema",
                "default": "",
                "examples": [
                  "organisation"
                ],
                "pattern": "^(.*)$"
              }
            }
          }
        },
        "ansvarlig": {
          "$id": "#/properties/relationer/properties/ansvarlig",
          "type": "array",
          "title": "The Ansvarlig Schema",
          "items": {
            "$id": "#/properties/relationer/properties/ansvarlig/items",
            "type": "object",
            "title": "The Items Schema",
            "required": [
              "rel_uuid",
              "rel_objekttype"
            ],
            "properties": {
              "rel_uuid": {
                "$id": "#/properties/relationer/properties/ansvarlig/items/properties/rel_uuid",
                "type": "string",
                "title": "The Rel_uuid Schema",
                "default": "",
                "examples": [
                  "132f4dc4-cecb-4b9e-a976-459e423ed01c"
                ],
                "pattern": "^(.*)$"
              },
              "rel_objekttype": {
                "$id": "#/properties/relationer/properties/ansvarlig/items/properties/rel_objekttype",
                "type": "string",
                "title": "The Rel_objekttype Schema",
                "default": "",
                "examples": [
                  "organisation"
                ],
                "pattern": "^(.*)$"
              }
            }
          }
        },
        "tilhoerer": {
          "$id": "#/properties/relationer/properties/tilhoerer",
          "type": "array",
          "title": "The Tilhoerer Schema",
          "items": {
            "$id": "#/properties/relationer/properties/tilhoerer/items",
            "type": "object",
            "title": "The Items Schema",
            "required": [
              "rel_uuid",
              "rel_objekttype"
            ],
            "properties": {
              "rel_uuid": {
                "$id": "#/properties/relationer/properties/tilhoerer/items/properties/rel_uuid",
                "type": "string",
                "title": "The Rel_uuid Schema",
                "default": "",
                "examples": [
                  "132f4dc4-cecb-4b9e-a976-459e423ed01c"
                ],
                "pattern": "^(.*)$"
              },
              "rel_objekttype": {
                "$id": "#/properties/relationer/properties/tilhoerer/items/properties/rel_objekttype",
                "type": "string",
                "title": "The Rel_objekttype Schema",
                "default": "",
                "examples": [
                  "organisation"
                ],
                "pattern": "^(.*)$"
              }
            }
          }
        },
        "redaktoerer": {
          "$id": "#/properties/relationer/properties/redaktoerer",
          "type": "array",
          "title": "The Redaktoerer Schema",
          "items": {
            "$id": "#/properties/relationer/properties/redaktoerer/items",
            "type": "object",
            "title": "The Items Schema",
            "required": [
              "rel_uuid",
              "rel_objekttype"
            ],
            "properties": {
              "rel_uuid": {
                "$id": "#/properties/relationer/properties/redaktoerer/items/properties/rel_uuid",
                "type": "string",
                "title": "The Rel_uuid Schema",
                "default": "",
                "examples": [
                  "79ccd21b-143c-471d-b033-97cbb55ed790"
                ],
                "pattern": "^(.*)$"
              },
              "rel_objekttype": {
                "$id": "#/properties/relationer/properties/redaktoerer/items/properties/rel_objekttype",
                "type": "string",
                "title": "The Rel_objekttype Schema",
                "default": "",
                "examples": [
                  "bruger"
                ],
                "pattern": "^(.*)$"
              }
            }
          }
        }
      }
    },
    "registrering": {
      "$id": "#/properties/registrering",
      "type": "object",
      "title": "The Registrering Schema",
      "required": [
        "timestamp",
        "livscyklus",
        "bruger_uuid"
      ],
      "properties": {
        "timestamp": {
          "$id": "#/properties/registrering/properties/timestamp",
          "type": "string",
          "title": "The Timestamp Schema",
          "default": "",
          "examples": [
            "2018-09-27 09:07:32"
          ],
          "pattern": "^(.*)$"
        },
        "livscyklus": {
          "$id": "#/properties/registrering/properties/livscyklus",
          "type": "string",
          "title": "The Livscyklus Schema",
          "default": "",
          "examples": [
            "create"
          ],
          "pattern": "^(.*)$"
        },
        "bruger_uuid": {
          "$id": "#/properties/registrering/properties/bruger_uuid",
          "type": "string",
          "title": "The Bruger_uuid Schema",
          "default": "",
          "examples": [
            "9b770978-2b12-46f3-8fcd-3944e68845ec"
          ],
          "pattern": "^(.*)$"
        }
      }
    },
    "hovedobjekttype": {
      "$id": "#/properties/hovedobjekttype",
      "type": "string",
      "title": "The Hovedobjekttype Schema",
      "default": "",
      "examples": [
        "organisation"
      ],
      "pattern": "^(.*)$"
    },
    "brugervendtnoegle": {
      "$id": "#/properties/brugervendtnoegle",
      "type": "string",
      "title": "The Brugervendtnoegle Schema",
      "default": "",
      "examples": [
        "od_organisation"
      ],
      "pattern": "^(.*)$"
    },
    "forretningsobjektnavn": {
      "$id": "#/properties/forretningsobjektnavn",
      "type": "string",
      "title": "The Forretningsobjektnavn Schema",
      "default": "",
      "examples": [
        "Objektdefinition af organisation"
      ],
      "pattern": "^(.*)$"
    }
  }
}