{
  "brugervendtnoegle": "od_funktion",
  "objekttype": "skema",
  "indhold": "objektdefinition",
  "hovedobjekttype": "funktion",
  "menunummer": "1",
  "forretningsobjektnavn": "Objektdefinition af organisation",

  "felter":
  {
    "529db181-3ef6-4f6e-be48-0cff217ea5a5": {
      "uuid": "529db181-3ef6-4f6e-be48-0cff217ea5a5",
      "brugervendtnoegle": "uuid",
      "elementnummer": "1",
      "elementtype": "identifikation",
      "feltegenskaber": "uuid"
    }
  ,
    "dd1044f8-e1e8-4821-8d77-c25e4a3c70e3": {
      "uuid": "dd1044f8-e1e8-4821-8d77-c25e4a3c70e3",
      "brugervendtnoegle": "fra",
      "elementnummer": "2",
      "elementtype": "virkning",
      "feltegenskaber": "date"
    }
  ,

    "808549e5-6504-4933-8bb4-d8f79dddc0fa": {
      "uuid": "808549e5-6504-4933-8bb4-d8f79dddc0fa",
      "brugervendtnoegle": "til",
      "elementnummer": "3",
      "elementtype": "virkning",
      "feltegenskaber": "date"
    }
  ,
    "e94433ea-5f0e-41ba-8d20-7bfe8dda7875": {
      "uuid": "e94433ea-5f0e-41ba-8d20-7bfe8dda7875",
      "brugervendtnoegle": "brugervendtnoegle",
      "elementnummer": "4",
      "elementtype": "attributter",
      "kontekst": ["102e3524-6851-4c58-95b1-20c0e52c7aa2"],
      "feltegenskaber": "text"
    }
  ,

    "fc8daf89-64d9-4d39-b409-3767a5c2e421": {
      "uuid": "fc8daf89-64d9-4d39-b409-3767a5c2e421",
      "brugervendtnoegle": "note",
      "elementnummer": "5",
      "elementtype": "virkning",
      "feltegenskaber": "text"
    },


    "456424b6-eaf8-4c6c-85b6-740a05ba0bb4": {
      "uuid": "456424b6-eaf8-4c6c-85b6-740a05ba0bb4",
      "brugervendtnoegle": "funktionsnavn",
      "elementnummer": "6",
      "elementtype": "attributter",
      "feltegenskaber": "text"
    }
  ,

    "601a39cd-ab36-42be-8441-9f6f07483d0b": {
      "uuid": "601a39cd-ab36-42be-8441-9f6f07483d0b",
      "brugervendtnoegle": "gyldighed",
      "elementnummer": "7",
      "elementtype": "tilstande",
      "feltegenskaber": "uuid",
      "rel_objekttype": "klasse"
    }
  ,

    "e0b7e518-ef6c-4fe5-93fc-4733f3a65464": {
      "uuid": "e0b7e518-ef6c-4fe5-93fc-4733f3a65464",
      "brugervendtnoegle": "funktionstype",
      "elementnummer": "8",
      "elementtype": "relation",
      "feltegenskaber": "uuid",
      "rel_objekttype": "klasse"
    }
  ,

    "102e3524-6851-4c58-95b1-20c0e52c7aa2": {
      "uuid": "102e3524-6851-4c58-95b1-20c0e52c7aa2",
      "brugervendtnoegle": "tilknyttedeorganisationer",
      "elementnummer": "9",
      "elementtype": "relationer",
      "feltegenskaber": "uuid",
      "rel_objekttype": "organisation"
    }
  ,
    "c8dbe8ce-9a80-47e2-a630-fbd545b8d9c0": {
      "uuid": "c8dbe8ce-9a80-47e2-a630-fbd545b8d9c0",
      "brugervendtnoegle": "tilknyttedeenheder",
      "elementnummer": "10",
      "elementtype": "relationer",
      "feltegenskaber": "uuid",
      "rel_objekttype": "organisationenhed"
    },

    "8b9f21fc-c1d1-4598-9a45-b8538c9b8b70": {
      "uuid": "8b9f21fc-c1d1-4598-9a45-b8538c9b8b70",
      "brugervendtnoegle": "tilknyttedebrugere",
      "elementnummer": "11",
      "elementtype": "relationer",
      "feltegenskaber": "uuid",
      "rel_objekttype": "bruger"
    }
,
  "c3cd4d1d-82bd-4daf-b931-67e692987dac": {
    "uuid": "c3cd4d1d-82bd-4daf-b931-67e692987dac",
    "brugervendtnoegle": "tilknyttedeitsystemer",
    "elementnummer": "12",
    "elementtype": "relationer",
    "feltegenskaber": "uuid",
    "rel_objekttype": "itsystem"
  }
,

  "1bc1c640-4e8e-4cb3-b10b-a640fac28b81": {
    "uuid": "1bc1c640-4e8e-4cb3-b10b-a640fac28b81",
    "brugervendtnoegle": "opgaver",
    "elementnummer": "13",
    "elementtype": "relationer",
    "feltegenskaber": "uuid",
    "rel_objekttype": "klasse"
  }
,

  "8f6c1255-f7e4-4086-b737-7a41ebd066b0": {
    "uuid": "8f6c1255-f7e4-4086-b737-7a41ebd066b0",
    "brugervendtnoegle": "telefon",
    "elementnummer": "14",
    "elementtype": "relationer",
    "feltegenskaber": "uuid",
    "rel_objekttype": "telefon"
  }
,

  "8fbcc8e4-ac2e-4592-9024-cedff896a630": {
    "uuid": "8fbcc8e4-ac2e-4592-9024-cedff896a630",
    "brugervendtnoegle": "email",
    "elementnummer": "15",
    "elementtype": "relationer",
    "feltegenskaber": "uuid",
    "rel_objekttype": "email"
  }
,

  "0119ba49-8c7a-467e-b8e7-979043a5b859": {
    "uuid": "0119ba49-8c7a-467e-b8e7-979043a5b859",
    "brugervendtnoegle": "tilknyttedepersoner",
    "elementnummer": "16",
    "elementtype": "relationer",
    "feltegenskaber": "uuid",
    "rel_objekttype": "person"
  }
,

  "3b30c055-8a0e-4274-8a05-b13bab3d555a": {
    "uuid": "3b30c055-8a0e-4274-8a05-b13bab3d555a",
    "brugervendtnoegle": "adresser",
    "elementnummer": "17",
    "elementtype": "relationer",
    "feltegenskaber": "uuid",
    "rel_objekttype": "adresse"
  }
,

  "8de11b4c-edd7-40e0-ab08-9d21e99a798a": {
    "uuid": "8de11b4c-edd7-40e0-ab08-9d21e99a798a",
    "brugervendtnoegle": "tilhoerer",
    "elementnummer": "18",
    "elementtype": "relation",
    "feltegenskaber": "uuid",
    "rel_objekttype": "organisation"
  }
,

  "8e98daa8-1346-48fa-ab99-5a77cd1ff306": {
    "uuid": "8e98daa8-1346-48fa-ab99-5a77cd1ff306",
    "brugervendtnoegle": "URI",
    "elementnummer": "19",
    "elementtype": "relationer",
    "feltegenskaber": "uuid",
    "rel_objekttype": "URI"
  }
,

  "8eff5a4f-7db7-4f6b-a52a-48e814d40d37": {
    "uuid": "8eff5a4f-7db7-4f6b-a52a-48e814d40d37",
    "brugervendtnoegle": "EAN",
    "elementnummer": "20",
    "elementtype": "relationer",
    "feltegenskaber": "uuid",
    "rel_objekttype": "EAN"
  }
,


  "8f1a58f5-2ae2-401a-90bb-b8f96d7fd8bc": {
    "uuid": "8f1a58f5-2ae2-401a-90bb-b8f96d7fd8bc",
    "brugervendtnoegle": "EAN",
    "elementnummer": "21",
    "elementtype": "relationer",
    "feltegenskaber": "uuid",
    "rel_objekttype": "EAN"
  }
,

  "781b4e6c-1168-4a5b-a56f-c9337242ef6d": {
    "uuid": "781b4e6c-1168-4a5b-a56f-c9337242ef6d",
    "brugervendtnoegle": "tag1",
    "elementnummer": "22",
    "elementtype": "attributter",
    "feltegenskaber": "text"
  }
,
    "1bb72deb-e8b1-445b-b705-069b5f453f42": {
      "uuid": "1bb72deb-e8b1-445b-b705-069b5f453f42",
      "brugervendtnoegle": "tag2",
      "elementnummer": "23",
      "elementtype": "attributter",
      "feltegenskaber": "text"
    },
    "6d45fe8b-f769-4214-95c1-8e0a95fc1152": {
      "uuid": "6d45fe8b-f769-4214-95c1-8e0a95fc1152",
      "brugervendtnoegle": "tag3",
      "elementnummer": "24",
      "elementtype": "attributter",
      "feltegenskaber": "text"
    },
    "327351f4-581d-4805-bb13-8c57865cc97d": {
      "uuid": "327351f4-581d-4805-bb13-8c57865cc97d",
      "brugervendtnoegle": "tag4",
      "elementnummer": "25",
      "elementtype": "attributter",
      "feltegenskaber": "text"
    },
    "606fb5c8-5951-41ae-a5a2-170dfc29ca94": {
      "uuid": "606fb5c8-5951-41ae-a5a2-170dfc29ca94",
      "brugervendtnoegle": "tag5",
      "elementnummer": "26",
      "elementtype": "attributter",
      "feltegenskaber": "text"
    }

  },


  "relationer": {
    "ejer": [
      {
        "rel_objekttype": "organisation",
        "rel_uuid": "132f4dc4-cecb-4b9e-a976-459e423ed01c"
      }
    ],
    "tilhoerer": [
      {
        "rel_objekttype": "organisation",
        "rel_uuid": "bc189a12-8b6f-44d4-8e33-ec017c1a8346"
      }
    ],
    "ansvarlig": [
      {
        "rel_objekttype": "organisation",
        "rel_uuid": "132f4dc4-cecb-4b9e-a976-459e423ed01c"
      }
    ],
    "redaktoerer": [
      {
        "rel_objekttype": "bruger",
        "rel_uuid": "e711d181-1986-4553-9832-94276f9034f3"
      }
    ]
  },
  "virkning": {
    "fra": "2018-10-01 16:00:00",
    "til": null,
    "note": null
  },
  "registrering": {
    "livscyklus": "create",
    "bruger_uuid": "9b770978-2b12-46f3-8fcd-3944e68845ec",
    "timestamp": "2018-09-12 14:31:05"
  }
}


